{
  "userId" : "b70c87d5-cab8-4eaa-a3f0-d94d275bd549",
  "userList" : [ {
    "id" : "94f9c392-f4b4-4fb3-b2d6-59293ae19ea6",
    "login" : "user",
    "roleType" : "USER",
    "passwordHash" : "ee11cbb19052e40b07aac0ca060c23ee"
  }, {
    "id" : "b70c87d5-cab8-4eaa-a3f0-d94d275bd549",
    "login" : "admin",
    "roleType" : "ADMIN",
    "passwordHash" : "21232f297a57a5a743894a0e4a801fc3"
  }, {
    "id" : "e7360985-aecc-4aa7-ac80-bab751bc7254",
    "login" : "user2",
    "roleType" : "USER",
    "passwordHash" : "7e58d63b60197ceb55a1c487989a3720"
  } ],
  "projectList" : [ {
    "id" : "08a3991c-1c7e-4b61-ab49-81133d3ea9af",
    "status" : "PLANNED",
    "dateOfCreate" : 1573851600000,
    "dateOfBegin" : null,
    "dateOfEnd" : null,
    "name" : "project2",
    "userId" : "94f9c392-f4b4-4fb3-b2d6-59293ae19ea6",
    "description" : ""
  }, {
    "id" : "61aae680-a7ed-484c-a036-5a9a01302b19",
    "status" : "PLANNED",
    "dateOfCreate" : 1573851600000,
    "dateOfBegin" : null,
    "dateOfEnd" : null,
    "name" : "project1",
    "userId" : "94f9c392-f4b4-4fb3-b2d6-59293ae19ea6",
    "description" : ""
  }, {
    "id" : "f51d51b9-9bac-4be1-bbbc-09493454924b",
    "status" : "PLANNED",
    "dateOfCreate" : 1573851600000,
    "dateOfBegin" : null,
    "dateOfEnd" : null,
    "name" : "project2",
    "userId" : "94f9c392-f4b4-4fb3-b2d6-59293ae19ea6",
    "description" : ""
  } ],
  "taskList" : [ {
    "id" : "42fdfebe-1ddc-4990-b3e1-f9db1213b451",
    "status" : "PLANNED",
    "dateOfCreate" : 1573851600000,
    "dateOfBegin" : null,
    "dateOfEnd" : null,
    "projectId" : "08a3991c-1c7e-4b61-ab49-81133d3ea9af",
    "name" : "task2",
    "description" : null,
    "userId" : "94f9c392-f4b4-4fb3-b2d6-59293ae19ea6"
  }, {
    "id" : "f04cda01-e360-4c7f-a8de-2a3ad8f4c55c",
    "status" : "PLANNED",
    "dateOfCreate" : 1573851600000,
    "dateOfBegin" : null,
    "dateOfEnd" : null,
    "projectId" : "61aae680-a7ed-484c-a036-5a9a01302b19",
    "name" : "task1",
    "description" : null,
    "userId" : "94f9c392-f4b4-4fb3-b2d6-59293ae19ea6"
  } ]
}